<svg width="360" height="116" viewBox="0 0 360 116" fill="none" xmlns="http://www.w3.org/2000/svg">
<path fill-rule="evenodd" clip-rule="evenodd" d="M0 71.2644L20 68.9436C40 66.6228 80 61.9812 120 53.8584C160 45.7356 200 32.9713 240 24.8485C280 16.7257 320 12.0841 340 9.76335L360 8.60295V108.397H340C320 108.397 280 108.397 240 108.397C200 108.397 160 108.397 120 108.397C80 108.397 40 108.397 20 108.397H0V71.2644Z" fill="#A5D7F8" fill-opacity="0.7"/>
<path fill-rule="evenodd" clip-rule="evenodd" d="M0 62.6614L20 60.3406C40 58.0198 80 53.3783 120 45.2555C160 37.1327 200 24.3683 240 16.2456C280 8.12278 320 3.48119 340 1.1604L360 0V99.7941H340C320 99.7941 280 99.7941 240 99.7941C200 99.7941 160 99.7941 120 99.7941C80 99.7941 40 99.7941 20 99.7941H0V62.6614Z" fill="#B5DBF4" fill-opacity="0.52"/>
<path fill-rule="evenodd" clip-rule="evenodd" d="M0 79.8673L20 77.5465C40 75.2257 80 70.5841 120 62.4613C160 54.3386 200 41.5742 240 33.4514C280 25.3286 320 20.6871 340 18.3663L360 17.2059V117H340C320 117 280 117 240 117C200 117 160 117 120 117C80 117 40 117 20 117H0V79.8673Z" fill="#3AB0FF"/>
</svg>
